%YAML 1.1
%TAG !u! tag:unity3d.com,2011:
--- !u!1 &8321349631171449321
GameObject:
  m_ObjectHideFlags: 0
  m_CorrespondingSourceObject: {fileID: 0}
  m_PrefabInstance: {fileID: 0}
  m_PrefabAsset: {fileID: 0}
  serializedVersion: 6
  m_Component:
  - component: {fileID: 8321349631171449323}
  - component: {fileID: 8321349631171449322}
  m_Layer: 0
  m_Name: CrittrReporter
  m_TagString: Untagged
  m_Icon: {fileID: 0}
  m_NavMeshLayer: 0
  m_StaticEditorFlags: 0
  m_IsActive: 1
--- !u!4 &8321349631171449323
Transform:
  m_ObjectHideFlags: 0
  m_CorrespondingSourceObject: {fileID: 0}
  m_PrefabInstance: {fileID: 0}
  m_PrefabAsset: {fileID: 0}
  m_GameObject: {fileID: 8321349631171449321}
  m_LocalRotation: {x: 0, y: 0, z: 0, w: 1}
  m_LocalPosition: {x: 0, y: 0, z: 0}
  m_LocalScale: {x: 1, y: 1, z: 1}
  m_Children: []
  m_Father: {fileID: 0}
  m_RootOrder: 0
  m_LocalEulerAnglesHint: {x: 0, y: 0, z: 0}
--- !u!114 &8321349631171449322
MonoBehaviour:
  m_ObjectHideFlags: 0
  m_CorrespondingSourceObject: {fileID: 0}
  m_PrefabInstance: {fileID: 0}
  m_PrefabAsset: {fileID: 0}
  m_GameObject: {fileID: 8321349631171449321}
  m_Enabled: 1
  m_EditorHideFlags: 0
  m_Script: {fileID: 11500000, guid: 5d48828db37d2e04cbb8a434c4fbfdfb, type: 3}
  m_Name: 
  m_EditorClassIdentifier: 
  ConnectionURI: 
  sendAutomaticReports: 0
  maxLogs: 100
  isVerbose: 1
  keyboardInputTrigger: 289
  controllerInputTriggers: 4a0100004e0100004f010000
  OnShowForm:
    m_PersistentCalls:
      m_Calls:
      - m_Target: {fileID: 9019647422948999181, guid: 855fc19c809de764bb3b5d3cb7eb2176,
          type: 3}
        m_MethodName: HandleShowForm
        m_Mode: 0
        m_Arguments:
          m_ObjectArgument: {fileID: 0}
          m_ObjectArgumentAssemblyTypeName: UnityEngine.Object, UnityEngine
          m_IntArgument: 0
          m_FloatArgument: 0
          m_StringArgument: 
          m_BoolArgument: 0
        m_CallState: 2
  OnReportSend:
    m_PersistentCalls:
      m_Calls: []
  OnReportSuccess:
    m_PersistentCalls:
      m_Calls:
      - m_Target: {fileID: 9019647422948999181, guid: 855fc19c809de764bb3b5d3cb7eb2176,
          type: 3}
        m_MethodName: HandleShowSuccess
        m_Mode: 0
        m_Arguments:
          m_ObjectArgument: {fileID: 0}
          m_ObjectArgumentAssemblyTypeName: UnityEngine.Object, UnityEngine
          m_IntArgument: 0
          m_FloatArgument: 0
          m_StringArgument: 
          m_BoolArgument: 0
        m_CallState: 2
  OnReportFailure:
    m_PersistentCalls:
      m_Calls:
      - m_Target: {fileID: 9019647422948999181, guid: 855fc19c809de764bb3b5d3cb7eb2176,
          type: 3}
        m_MethodName: HandleShowFailure
        m_Mode: 0
        m_Arguments:
          m_ObjectArgument: {fileID: 0}
          m_ObjectArgumentAssemblyTypeName: UnityEngine.Object, UnityEngine
          m_IntArgument: 0
          m_FloatArgument: 0
          m_StringArgument: 
          m_BoolArgument: 0
        m_CallState: 2
